…
cv_df %>% pull(train) %>% .[[1]] #pull out first element of your list of your training dataset
```

    ## <resample [79 x 3]> 1, 2, 3, 4, 6, 7, 8, 9, 10, 11, ...

``` r
#calling it a class of object resample in which you don't have to keep track of your dataframe and only keep track of which row is in your dataset (gives weird object)--> create into tibble (keeps track of all of your testing splits)

cv_df %>% pull(train) %>% .[[1]] %>% as_tibble
```

    ## # A tibble: 79 × 3
    ##       id      x       y
    ##    <int>  <dbl>   <dbl>
    ##  1     1 0.266   1.11  
    ##  2     2 0.372   0.764 
    ##  3     3 0.573   0.358 
    ##  4     4 0.908  -3.04  
    ##  5     6 0.898  -1.99  
    ##  6     7 0.945  -3.27  
    ##  7     8 0.661  -0.615 
    ##  8     9 0.629   0.0878
    ##  9    10 0.0618  0.392 
    ## 10    11 0.206   1.63  
    ## # … with 69 more rows
…
