…
## Diagnostics

- yes, always do this

- getting residuals

- pckge asks what dataset did you get models

add_residuals(dataset, linearmodel)

``` r
modelr::add_residuals(nyc_airbnb, fit)
```

    ## # A tibble: 40,492 × 6
    ##    price stars borough neighborhood room_type        resid
    ##    <dbl> <dbl> <chr>   <chr>        <chr>            <dbl>
    ##  1    99   5   Bronx   City Island  Private room      9.47
    ##  2   200  NA   Bronx   City Island  Private room     NA   
    ##  3   300  NA   Bronx   City Island  Entire home/apt  NA   
    ##  4   125   5   Bronx   City Island  Entire home/apt  35.5 
    ##  5    69   5   Bronx   City Island  Private room    -20.5 
    ##  6   125   5   Bronx   City Island  Entire home/apt  35.5 
    ##  7    85   5   Bronx   City Island  Entire home/apt  -4.53
    ##  8    39   4.5 Bronx   Allerton     Private room    -34.5 
    ##  9    95   5   Bronx   Allerton     Entire home/apt   5.47
    ## 10   125   4.5 Bronx   Allerton     Entire home/apt  51.5 
    ## # … with 40,482 more rows
…
